{
    "modules": [
        "rgbd_processing"
    ],
    "graph": {
        "nodes": [
            {
                "name": "subgraph",
                "components": [
                    {
                        "name": "message_ledger",
                        "type": "isaac::alice::MessageLedger"
                    },
                    {
                        "name": "interface",
                        "type": "isaac::alice::Subgraph"
                    }
                ]
            },
            {
                "name": "natrix_hardware",
                "subgraph": "apps/natrix/natrix_hardware.subgraph.json"
            },
            {
                "name": "image_flattening",
                "components": [
                    {
                        "name": "message_ledger",
                        "type": "isaac::alice::MessageLedger"
                    },
                    {
                        "name": "isaac.rgbd_processing.DepthImageFlattening",
                        "type": "isaac::rgbd_processing::DepthImageFlattening"
                    },
                    {
                        "name": "isaac.alice.Throttle",
                        "type": "isaac::alice::Throttle"
                    }
                ]
            }
        ],
        "edges": [
            {
                "source": "natrix_hardware.subgraph/interface/realsense_depth",
                "target": "image_flattening/isaac.alice.Throttle/input"
            },
            {
                "source": "image_flattening/isaac.alice.Throttle/output",
                "target": "image_flattening/isaac.rgbd_processing.DepthImageFlattening/depth"
            },
            {
                "source": "image_flattening/isaac.rgbd_processing.DepthImageFlattening/flatscan",
                "target": "subgraph/interface/flatscan"
            },
            {
                "source": "subgraph/interface/base_command",
                "target": "natrix_hardware.subgraph/interface/base_command"
            },
            {
                "source": "natrix_hardware.subgraph/interface/base_state",
                "target": "subgraph/interface/base_state"
            },
            {
                "source": "natrix_hardware.subgraph/interface/imu_raw",
                "target": "subgraph/interface/imu_raw"
            },
            {
                "source": "natrix_hardware.subgraph/interface/realsense_depth",
                "target": "subgraph/interface/realsense_depth"
            },
            {
                "source": "natrix_hardware.subgraph/interface/realsense_color",
                "target": "subgraph/interface/realsense_color"
            }
        ]
    },
    "config": {
        "image_flattening": {
            "isaac.rgbd_processing.DepthImageFlattening": {
                "min_distance": 0.1,
                "max_distance": 1.7,
                "height_min": 0.08,
                "height_max": 0.20,
                "ground_frame": "robot",
                "camera_frame": "camera",
                "range_delta": 0.015,
                "sector_delta": 0.008
            },
            "isaac.alice.Throttle": {
                "data_channel": "input",
                "output_channel": "output",
                "minimum_interval": 0.1,
                "use_signal_channel": false
            }
        }
    }
}